Start time:, 1678528325520137231
End time:, 1678528456625501903
Total time:, 131105364672

Total Event Occurrences
Reaction starts, 6
Reaction ends, 6
Reaction deadline missed, 1
User-defined valued event, 12
Worker wait starts, 12
Worker wait ends, 9
Scheduler advancing time starts, 9

Reaction Executions
Reactor, Reaction, Occurrences, Total Time, Pct Total Time, Avg Time, Max Time, Min Time
NO REACTOR, 0, 13, 516201, 0.000394, 39707, 516201, 0
NO REACTOR, 3, 1, 3000741684, 2.288802, 3000741684, 3000741684, 3000741684
NO REACTOR, 6, 2, 2994772146, 2.284248, 1497386073, 2994684409, 87737
lab, 3, 1, 184945, 0.000141, 184945, 184945, 184945
lab, 6, 1, 205129, 0.000156, 205129, 205129, 205129

User events
Description, Occurrences, Total Value, Avg Value, Max Value, Min Value
NO REACTOR, 20, 516201, 39707, 516201, 0
