Start time:, 1678528325520137231
End time:, 1678528458602439005
Total time:, 133082301774

Total Event Occurrences
Reaction starts, 61
Reaction ends, 61
Reaction deadline missed, 11
User-defined valued event, 68
Worker wait starts, 68
Worker wait ends, 25
Scheduler advancing time starts, 25

Reaction Executions
Reactor, Reaction, Occurrences, Total Time, Pct Total Time, Avg Time, Max Time, Min Time
NO REACTOR, 0, 77, 16491475, 0.012392, 214175, 15753776, 0
NO REACTOR, 1, 7, 1134272, 0.000852, 162038, 385247, 40807
NO REACTOR, 2, 6, 821533, 0.000617, 136922, 319353, 41147
NO REACTOR, 3, 2, 3061, 0.000002, 1530, 1853, 1208
NO REACTOR, 6, 1, 1617, 0.000001, 1617, 1617, 1617
NO REACTOR, 7, 9, 3004364527, 2.257524, 333818280, 3003398193, 1290
NO REACTOR, 8, 8, 1036493865, 0.778837, 129561733, 1035563219, 39650
op, 0, 4, 561645, 0.000422, 140411, 206023, 78154
op, 1, 2, 331329, 0.000249, 165664, 185972, 145357
op, 2, 2, 310282, 0.000233, 155141, 170533, 139749
op, 7, 3, 378075, 0.000284, 126025, 152584, 87349
op, 8, 2, 2002543868, 1.504741, 1001271934, 2002387913, 155955
op.docterm, 0, 2, 621126, 0.000467, 310563, 525187, 95939
op.docterm, 1, 2, 195100, 0.000147, 97550, 122141, 72959
op.docterm, 2, 1, 76084, 0.000057, 76084, 76084, 76084
op.docterm, 7, 1, 75721, 0.000057, 75721, 75721, 75721

User events
Description, Occurrences, Total Value, Avg Value, Max Value, Min Value
NO REACTOR, 152, 16491475, 214175, 15753776, 0
